[
 {
  "charts": [
   {
    "chart": "Weekly Transactions",
    "parent": "Transaction Dashboard",
    "parentfield": "charts",
    "parenttype": "Dashboard"
   },
   {
    "chart": "Transactions",
    "parent": "Transaction Dashboard",
    "parentfield": "charts",
    "parenttype": "Dashboard"
   }
  ],
  "dashboard_name": "Transaction Dashboard",
  "docstatus": 0,
  "doctype": "Dashboard",
  "is_default": 0,
  "modified": "2021-02-21 23:48:10.621716",
  "name": "Transaction Dashboard",
  "parent": null,
  "parentfield": null,
  "parenttype": null
 }
]