{
 "autoname": "field:uid",
 "creation": "2021-02-21 23:00:47.027187",
 "doctype": "DocType",
 "editable_grid": 1,
 "engine": "InnoDB",
 "field_order": [
  "title",
  "uid",
  "status",
  "description",
  "column_break_5",
  "softwareid",
  "appid",
  "alerted",
  "mobile",
  "imei"
 ],
 "fields": [
  {
   "fieldname": "title",
   "fieldtype": "Data",
   "in_list_view": 1,
   "in_standard_filter": 1,
   "label": "Name",
   "reqd": 1
  },
  {
   "fieldname": "uid",
   "fieldtype": "Data",
   "in_list_view": 1,
   "in_standard_filter": 1,
   "label": "UID",
   "unique": 1
  },
  {
   "fieldname": "description",
   "fieldtype": "Small Text",
   "label": "Description"
  },
  {
   "fieldname": "softwareid",
   "fieldtype": "Int",
   "in_list_view": 1,
   "label": "Software Id"
  },
  {
   "fieldname": "appid",
   "fieldtype": "Int",
   "in_list_view": 1,
   "label": "App Id"
  },
  {
   "fieldname": "status",
   "fieldtype": "Int",
   "label": "Status"
  },
  {
   "fieldname": "alerted",
   "fieldtype": "Int",
   "label": "Alerted"
  },
  {
   "fieldname": "mobile",
   "fieldtype": "Data",
   "in_list_view": 1,
   "label": "Mobile"
  },
  {
   "fieldname": "imei",
   "fieldtype": "Data",
   "label": "IMEI"
  },
  {
   "fieldname": "column_break_5",
   "fieldtype": "Column Break"
  }
 ],
 "modified": "2021-02-23 14:26:11.529315",
 "modified_by": "Administrator",
 "module": "casper",
 "name": "Device",
 "owner": "administrator",
 "permissions": [
  {
   "create": 1,
   "delete": 1,
   "email": 1,
   "export": 1,
   "print": 1,
   "read": 1,
   "report": 1,
   "role": "System Manager",
   "share": 1,
   "write": 1
  }
 ],
 "search_fields": "title",
 "sort_field": "modified",
 "sort_order": "DESC",
 "track_changes": 1
}